^C:\USERS\ERBOP\ONEDRIVE\DOKUMENTY\SOURCE\REPOS\LAB3\ZAD1\ZAD1\DEBUG\STDAFX.OBJ|C:\USERS\ERBOP\ONEDRIVE\DOKUMENTY\SOURCE\REPOS\LAB3\ZAD1\ZAD1\DEBUG\ZAD1.OBJ
C:\USERS\ERBOP\ONEDRIVE\DOKUMENTY\SOURCE\REPOS\LAB3\ZAD1\DEBUG\ZAD1.EXE
C:\USERS\ERBOP\ONEDRIVE\DOKUMENTY\SOURCE\REPOS\LAB3\ZAD1\DEBUG\ZAD1.ILK
C:\USERS\ERBOP\ONEDRIVE\DOKUMENTY\SOURCE\REPOS\LAB3\ZAD1\DEBUG\ZAD1.PDB
